^C:\USERS\MERESSE\SOURCE\REPOS\CONSOLEAPPLICATION\CONSOLEAPPLICATION.CPP
C:\USERS\MERESSE\SOURCE\REPOS\CONSOLEAPPLICATION\DEBUG\VC142.PDB
C:\USERS\MERESSE\SOURCE\REPOS\CONSOLEAPPLICATION\DEBUG\VC142.IDB
C:\USERS\MERESSE\SOURCE\REPOS\CONSOLEAPPLICATION\DEBUG\CONSOLEAPPLICATION.OBJ
